########################################################################################################################
# Syntax Coloring Map For EnhancedEthernet                                                                             #
########################################################################################################################

########################################################################################################################
# Datatypes (KEYWORD1)                                                                                                 #
########################################################################################################################

Ethernet											KEYWORD1	Ethernet
EthernetClient										KEYWORD1	EthernetClient
EthernetServer										KEYWORD1	EthernetServer
IPAddress											KEYWORD1	EthernetIPAddress



########################################################################################################################
# Methods and Functions (KEYWORD2)                                                                                     #
########################################################################################################################

status												KEYWORD2
connect												KEYWORD2
write												KEYWORD2
available											KEYWORD2
read												KEYWORD2
peek												KEYWORD2
flush												KEYWORD2
stop												KEYWORD2
connected											KEYWORD2
begin												KEYWORD2
beginPacket											KEYWORD2
endPacket											KEYWORD2
parsePacket											KEYWORD2
remoteIP											KEYWORD2
remotePort											KEYWORD2
getSocketNumber										KEYWORD2
localIP												KEYWORD2
maintain											KEYWORD2



########################################################################################################################
# Constants (LITERAL1)                                                                                                 #
########################################################################################################################



########################################################################################################################
